{
    "meta": {
        "section": "CSE-22",
        "type": "norm-class",
        "revision": "Revision 1.01",
        "effective-date": "Dec 8, 2024",
        "contributor": "PlanSync Admin :)",
        "isTimetableUpdating": false
    },
    "data": {
        "monday": [
            {
                "time": "08:00 - 09:00",
                "subject": "OS",
                "room": "C-LH-404"
            },
            {
                "time": "09:00 - 10:00",
                "subject": "OOPJ(L)",
                "room": "C-WL-202"
            },
            {
                "time": "10:00 - 11:00",
                "subject": "OOPJ(L)",
                "room": "C-WL-202"
            },
            {
                "time": "11:00 - 12:00",
                "subject": "OOPJ",
                "room": "C-LH-306"
            },
            {
                "time": "12:00 - 13:00",
                "subject": "DM",
                "room": "C-LH-306"
            },
            {
                "time": "13:00 - 14:00",
                "subject": "ED|IOC|OB",
                "room": "C-LH-306"
            }
        ],
        "tuesday": [
            {
                "time": "08:00 - 09:00",
                "subject": "ED|IOC|OB",
                "room": "C-LH-001"
            },
            {
                "time": "09:00 - 10:00",
                "subject": "OOPJ",
                "room": "C-LH-001"
            },
            {
                "time": "10:00 - 11:00",
                "subject": "DM",
                "room": "C-LH-001"
            },
            {
                "time": "11:00 - 12:00",
                "subject": "COA",
                "room": "C-LH-306"
            },
            {
                "time": "12:00 - 13:00",
                "subject": "DBMS",
                "room": "C-LH-306"
            },
            {
                "time": "13:00 - 14:00",
                "subject": "OS",
                "room": "C-LH-306"
            }
        ],
        "wednesday": [
            {
                "time": "08:00 - 09:00",
                "subject": "DBMS",
                "room": "C-LH-202"
            },
            {
                "time": "09:00 - 10:00",
                "subject": "DBMS(L)",
                "room": "C-WL-103"
            },
            {
                "time": "10:00 - 11:00",
                "subject": "DBMS(L)",
                "room": "C-WL-103"
            },
            {
                "time": "11:00 - 12:00",
                "subject": "DM",
                "room": "C-LH-305"
            },
            {
                "time": "12:00 - 13:00",
                "subject": "ED|IOC|OB",
                "room": "C-LH-305"
            },
            {
                "time": "13:00 - 14:00",
                "subject": "COA",
                "room": "C-LH-305"
            }
        ],
        "thursday": [
            {
                "time": "08:00 - 09:00",
                "subject": "DM",
                "room": "C-LH-206"
            },
            {
                "time": "09:00 - 10:00",
                "subject": "OOPJ",
                "room": "C-LH-206"
            },
            {
                "time": "10:00 - 11:00",
                "subject": "COA",
                "room": "C-LH-206"
            },
            {
                "time": "16:00 - 17:00",
                "subject": "VT(L)",
                "room": "---"
            },
            {
                "time": "17:00 - 18:00",
                "subject": "VT(L)",
                "room": "---"
            }
        ],
        "saturday": [
            {
                "time": "08:00 - 09:00",
                "subject": "DBMS",
                "room": "C-LH-202"
            },
            {
                "time": "09:00 - 10:00",
                "subject": "OS(L)",
                "room": "C-WL-202"
            },
            {
                "time": "10:00 - 11:00",
                "subject": "OS(L)",
                "room": "C-WL-202"
            },
            {
                "time": "11:00 - 12:00",
                "subject": "OS",
                "room": "C-LH-206"
            },
            {
                "time": "12:00 - 13:00",
                "subject": "COA",
                "room": "C-LH-206"
            }
        ]
    }
}