{
    "meta": {
        "section": "CSE-26",
        "type": "norm-class",
        "revision": "Revision 1.02",
        "effective-date": "Dec 17, 2024",
        "contributor": "PlanSync Admin :)",
        "isTimetableUpdating": false
    },
    "data": {
        "tuesday": [
            {
                "time": "08:00 - 09:00",
                "subject": "DBMS",
                "room": "C-LH-401"
            },
            {
                "time": "09:00 - 10:00",
                "subject": "DM",
                "room": "C-LH-401"
            },
            {
                "time": "10:00 - 11:00",
                "subject": "ED|IOC|OB",
                "room": "C-LH-401"
            },
            {
                "time": "16:00 - 17:00",
                "subject": "VT(L)",
                "room": "---"
            },
            {
                "time": "17:00 - 18:00",
                "subject": "VT(L)",
                "room": "---"
            }
        ],
        "wednesday": [
            {
                "time": "09:00 - 10:00",
                "subject": "OOPJ",
                "room": "C-LH-406"
            },
            {
                "time": "10:00 - 11:00",
                "subject": "DM",
                "room": "C-LH-406"
            },
            {
                "time": "11:00 - 12:00",
                "subject": "COA",
                "room": "C-LH-406"
            },
            {
                "time": "12:00 - 13:00",
                "subject": "OS",
                "room": "C-LH-406"
            },
            {
                "time": "13:00 - 14:00",
                "subject": "ED|IOC|OB",
                "room": "C-LH-406"
            }
        ],
        "thursday": [
            {
                "time": "08:00 - 09:00",
                "subject": "DBMS",
                "room": "C-LH-201"
            },
            {
                "time": "09:00 - 10:00",
                "subject": "OS(L)",
                "room": "C-WL-201"
            },
            {
                "time": "10:00 - 11:00",
                "subject": "OS(L)",
                "room": "C-WL-201"
            },
            {
                "time": "11:00 - 12:00",
                "subject": "ED|IOC|OB",
                "room": "C-LH-208"
            },
            {
                "time": "12:00 - 13:00",
                "subject": "COA",
                "room": "C-LH-208"
            },
            {
                "time": "13:00 - 14:00",
                "subject": "DM",
                "room": "C-LH-208"
            }
        ],
        "friday": [
            {
                "time": "08:00 - 09:00",
                "subject": "OS",
                "room": "C-LH-002"
            },
            {
                "time": "09:00 - 10:00",
                "subject": "OOPJ(L)",
                "room": "C-WL-301"
            },
            {
                "time": "10:00 - 11:00",
                "subject": "OOPJ(L)",
                "room": "C-WL-301"
            },
            {
                "time": "11:00 - 12:00",
                "subject": "OOPJ",
                "room": "C-LH-307"
            },
            {
                "time": "12:00 - 13:00",
                "subject": "COA",
                "room": "C-LH-307"
            },
            {
                "time": "13:00 - 14:00",
                "subject": "DM",
                "room": "C-LH-307"
            }
        ],
        "saturday": [
            {
                "time": "08:00 - 09:00",
                "subject": "OOPJ",
                "room": "C-LH-205"
            },
            {
                "time": "09:00 - 10:00",
                "subject": "DBMS",
                "room": "C-LH-205"
            },
            {
                "time": "10:00 - 11:00",
                "subject": "OS",
                "room": "C-LH-205"
            },
            {
                "time": "11:00 - 12:00",
                "subject": "COA",
                "room": "C-WL-201"
            },
            {
                "time": "12:00 - 13:00",
                "subject": "DBMS(L)",
                "room": "C-WL-201"
            },
            {
                "time": "13:00 - 14:00",
                "subject": "DBMS(L)",
                "room": "C-WL-201"
            }
        ]
    }
}