{
    "meta": {
        "section": "CSSE-3",
        "type": "norm-class",
        "revision": "Revision 1.01",
        "effective-date": "Dec 8, 2024",
        "contributor": "PlanSync Admin :)",
        "isTimetableUpdating": false
    },
    "data": {
        "monday": [
            {
                "time": "11:00 - 12:00",
                "subject": "DM",
                "room": "A-LH-206"
            },
            {
                "time": "12:00 - 13:00",
                "subject": "EECO",
                "room": "A-LH-206"
            },
            {
                "time": "15:00 - 16:00",
                "subject": "PSS",
                "room": "B-203"
            },
            {
                "time": "16:00 - 17:00",
                "subject": "DBMS(L)",
                "room": "B-WL-102"
            },
            {
                "time": "17:00 - 18:00",
                "subject": "DBMS(L)",
                "room": "B-WL-102"
            }
        ],
        "tuesday": [
            {
                "time": "11:00 - 12:00",
                "subject": "IND4",
                "room": "A-LH-203"
            },
            {
                "time": "12:00 - 13:00",
                "subject": "DM",
                "room": "A-LH-203"
            },
            {
                "time": "13:00 - 14:00",
                "subject": "PSS",
                "room": "A-LH-203"
            },
            {
                "time": "15:00 - 16:00",
                "subject": "OS",
                "room": "B-203"
            },
            {
                "time": "16:00 - 17:00",
                "subject": "OS(L)",
                "room": "B-WL-102"
            },
            {
                "time": "17:00 - 18:00",
                "subject": "OS(L)",
                "room": "B-WL-102"
            }
        ],
        "wednesday": [
            {
                "time": "11:00 - 12:00",
                "subject": "EECO",
                "room": "A-LH-203"
            },
            {
                "time": "12:00 - 13:00",
                "subject": "DBMS",
                "room": "A-LH-203"
            },
            {
                "time": "13:00 - 14:00",
                "subject": "DM",
                "room": "A-LH-203"
            },
            {
                "time": "15:00 - 16:00",
                "subject": "PSS",
                "room": "B-204"
            }
        ],
        "thursday": [
            {
                "time": "11:00 - 12:00",
                "subject": "PSS",
                "room": "A-LH-207"
            },
            {
                "time": "12:00 - 13:00",
                "subject": "DM",
                "room": "A-LH-207"
            },
            {
                "time": "13:00 - 14:00",
                "subject": "OS",
                "room": "A-LH-207"
            },
            {
                "time": "15:00 - 16:00",
                "subject": "EECO",
                "room": "B-202"
            },
            {
                "time": "16:00 - 17:00",
                "subject": "DBMS",
                "room": "B-202"
            }
        ],
        "friday": [
            {
                "time": "09:00 - 10:00",
                "subject": "VT(L)",
                "room": "---"
            },
            {
                "time": "10:00 - 11:00",
                "subject": "VT(L)",
                "room": "---"
            },
            {
                "time": "14:00 - 15:00",
                "subject": "OS",
                "room": "B-202"
            },
            {
                "time": "15:00 - 16:00",
                "subject": "IND4",
                "room": "B-202"
            },
            {
                "time": "16:00 - 17:00",
                "subject": "DBMS",
                "room": "B-202"
            }
        ]
    }
}