{
    "meta": {
        "section": "B22",
        "type": "norm-class",
        "revision": "Revision 1.0",
        "effective-date": "Aug 31, 2023",
        "contributor": "Ayushmaan Sinha",
        "isTimetableUpdating": false
    },
    "data": {
        "monday": [
            {
                "time": "09:20 - 11:20",
                "subject": "Communication Lab",
                "room": "303"
            },
            {
                "time": "11:20 - 12:20",
                "subject": "DE & LA",
                "room": "303"
            },
            {
                "time": "12:20 - 1:00",
                "subject": "***",
                "room": "303"
            },
            {
                "time": "1:00 - 2:00",
                "subject": "Chemistry",
                "room": "303"
            }
        ],
        "tuesday": [
            {
                "time": "08:00 - 09:00",
                "subject": "Electives",
                "room": "404"
            },
            {
                "time": "09:00 - 10:00",
                "subject": "***",
                "room": "404"
            },
            {
                "time": "10:00 - 12:00",
                "subject": "Engineering Lab",
                "room": "404"
            },
            {
                "time": "12:00 - 12:20",
                "subject": "***",
                "room": "404"
            },
            {
                "time": "12:20 - 1:20",
                "subject": "B. Etc",
                "room": "404"
            },
            {
                "time": "1:20 - 2:00",
                "subject": "DE & LA",
                "room": "404"
            }
        ],
        "wednesday": [
            {
                "time": "08:20 - 09:20",
                "subject": "BEE",
                "room": "304"
            },
            {
                "time": "09:20 - 10:20",
                "subject": "English",
                "room": "304"
            },
            {
                "time": "10:20 - 11:20",
                "subject": "YHC",
                "room": "304"
            },
            {
                "time": "11:20 - 12:20",
                "subject": "DE & LA",
                "room": "304"
            },
            {
                "time": "12:20 - 1:20",
                "subject": "Chemistry",
                "room": "304"
            }
        ],
        "thursday": [
            {
                "time": "08:00 - 09:00",
                "subject": "Electives",
                "room": "402"
            },
            {
                "time": "09:00 - 9:20",
                "subject": "***",
                "room": "402"
            },
            {
                "time": "9:20 - 10:20",
                "subject": "DE & LA",
                "room": "402"
            },
            {
                "time": "10:20 - 11:20",
                "subject": "English",
                "room": "402"
            },
            {
                "time": "11:20 - 12:00",
                "subject": "***",
                "room": "402"
            },
            {
                "time": "12:00 - 2:00",
                "subject": "Chemistry Lab",
                "room": "402"
            }
        ],
        "friday": [
            {
                "time": "08:20 - 09:20",
                "subject": "BEE",
                "room": "401"
            },
            {
                "time": "09:20 - 10:20",
                "subject": "Chemistry",
                "room": "401"
            },
            {
                "time": "10:20 - 11:20",
                "subject": "B. Etc",
                "room": "401"
            },
            {
                "time": "11:20 - 12:00",
                "subject": "***",
                "room": "401"
            },
            {
                "time": "12:00 - 2:00",
                "subject": "Workshop Practice",
                "room": "401"
            }
        ]
    }
}