{
    "meta": {
        "section": "b26",
        "type": "norm-class",
        "revision": "Revision 1.0",
        "effective-date": "Aug 31, 2023",
        "contributor": "AKASHDEEP SENGUPTA",
        "isTimetableUpdating": false
    },
    "data": {
        "monday": [
            {
                "time": "10:00 - 11:00",
                "subject": "Electives",
                "room": "306"
            },
            {
                "time": "11:20 - 12:20",
                "subject": "Eng.",
                "room": "306"
            },
            {
                "time": "12:20 - 13:20",
                "subject": "B. Etc.",
                "room": "306"
            },
            {
                "time": "13:20 - 14:20",
                "subject": "***",
                "room": "306"
            },
            {
                "time": "15:00 - 16:00",
                "subject": "Chem.",
                "room": "306"
            },
            {
                "time": "16:00 - 17:00",
                "subject": "DE&LA",
                "room": "306"
            }
        ],
        "tuesday": [
            {
                "time": "10:00 - 11:00",
                "subject": "BEE (Room 502)",
                "room": "306"
            },
            {
                "time": "11:20 - 12:20",
                "subject": "DE&LA",
                "room": "306"
            },
            {
                "time": "12:20 - 13:20",
                "subject": "B. Etc.",
                "room": "306"
            },
            {
                "time": "13:20 - 14:20",
                "subject": "***",
                "room": "306"
            },
            {
                "time": "15:00 - 16:00",
                "subject": "Engg. Lab",
                "room": "306"
            },
            {
                "time": "16:00 - 17:00",
                "subject": "Engg. Lab",
                "room": "306"
            }
        ],
        "wednesday": [
            {
                "time": "10:00 - 11:00",
                "subject": "Electives",
                "room": "401"
            },
            {
                "time": "11:20 - 12:20",
                "subject": "Chem.",
                "room": "401"
            },
            {
                "time": "12:20 - 13:20",
                "subject": "YHC",
                "room": "401"
            },
            {
                "time": "13:20 - 14:20",
                "subject": "***",
                "room": "401"
            },
            {
                "time": "15:00 - 16:00",
                "subject": "Workshop Pr.",
                "room": "401"
            },
            {
                "time": "16:00 - 17:00",
                "subject": "Workshop Pr.",
                "room": "401"
            }
        ],
        "thursday": [
            {
                "time": "10:00 - 11:00",
                "subject": "BEE (Room 502)",
                "room": "401"
            },
            {
                "time": "11:20 - 12:20",
                "subject": "Comm. Lab.",
                "room": "401"
            },
            {
                "time": "12:20 - 13:20",
                "subject": "Comm. Lab.",
                "room": "401"
            },
            {
                "time": "13:20 - 14:20",
                "subject": "***",
                "room": "401"
            },
            {
                "time": "15:00 - 16:00",
                "subject": "DE&LA",
                "room": "401"
            },
            {
                "time": "16:00 - 17:00",
                "subject": "Eng.",
                "room": "401"
            }
        ],
        "friday": [
            {
                "time": "11:20 - 12:20",
                "subject": "DE&LA",
                "room": "401"
            },
            {
                "time": "12:20 - 13:20",
                "subject": "Chem",
                "room": "401"
            },
            {
                "time": "13:20 - 14:20",
                "subject": "***",
                "room": "401"
            },
            {
                "time": "15:00 - 16:00",
                "subject": "Chem. Lab.",
                "room": "401"
            },
            {
                "time": "16:00 - 17:00",
                "subject": "Chem. Lab.",
                "room": "401"
            }
        ]
    }
}