{
    "meta": {
        "section": "A11",
        "type": "norm-class",
        "revision": "Revision 1.0",
        "effective-date": "Jan 6, 2025",
        "contributor": "PlanSync Admin :)",
        "isTimetableUpdating": false
    },
    "data": {
        "monday": [
            {
                "time": "10:20 - 12:20",
                "subject": "Chem. Lab",
                "room": "Campus 3"
            },
            {
                "time": "14:00 - 15:00",
                "subject": "Electives",
                "room": "See Electives Page"
            },
            {
                "time": "15:20 - 16:20",
                "subject": "T&NM",
                "room": "CLA-1"
            },
            {
                "time": "16:20 - 17:20",
                "subject": "CHEM",
                "room": "CLA-1"
            }
        ],
        "tuesday": [
            {
                "time": "10:20 - 12:20",
                "subject": "SY",
                "room": "Indoor Stadium, Campus 13"
            },
            {
                "time": "14:00 - 15:00",
                "subject": "Electives",
                "room": "See Electives Page"
            },
            {
                "time": "15:20 - 16:20",
                "subject": "CHEM",
                "room": "CLA-1"
            },
            {
                "time": "16:20 - 17:20",
                "subject": "BEtc",
                "room": "CLA-1"
            }
        ],
        "wednesday": [
            {
                "time": "10:20 - 12:20",
                "subject": "Comm. Lab",
                "room": "E-105"
            },
            {
                "time": "14:00 - 15:00",
                "subject": "BEtc",
                "room": "CLA-1"
            },
            {
                "time": "15:00 - 16:00",
                "subject": "CHEM",
                "room": "CLA-1"
            },
            {
                "time": "16:00 - 17:00",
                "subject": "T&NM",
                "room": "CLA-1"
            }
        ],
        "thursday": [
            {
                "time": "10:20 - 12:20",
                "subject": "Workshop",
                "room": "Campus 8"
            },
            {
                "time": "14:00 - 15:00",
                "subject": "BEE",
                "room": "CLA-1"
            },
            {
                "time": "15:00 - 16:00",
                "subject": "T&NM",
                "room": "CLA-1"
            },
            {
                "time": "16:00 - 17:00",
                "subject": "ENG",
                "room": "CLA-1"
            }
        ],
        "friday": [
            {
                "time": "10:20 - 12:20",
                "subject": "Engg. Lab.",
                "room": "Campus 3"
            },
            {
                "time": "14:00 - 15:00",
                "subject": "ENG",
                "room": "CLA-1"
            },
            {
                "time": "15:00 - 16:00",
                "subject": "BEE",
                "room": "CLA-1"
            },
            {
                "time": "16:00 - 17:00",
                "subject": "T&NM",
                "room": "CLA-1"
            }
        ]
    }
}