{
    "meta": {
        "section": "A22",
        "type": "norm-class",
        "revision": "Revision 1.0",
        "effective-date": "Jan 6, 2025",
        "contributor": "PlanSync Admin :)",
        "isTimetableUpdating": false
    },
    "data": {
        "monday": [
            {
                "time": "09:00 - 10:00",
                "subject": "ENG",
                "room": "C8"
            },
            {
                "time": "10:00 - 11:00",
                "subject": "BEtc",
                "room": "C8"
            },
            {
                "time": "11:00 - 12:00",
                "subject": "CHEM",
                "room": "C8"
            },
            {
                "time": "14:00 - 16:00",
                "subject": "Chem. Lab",
                "room": "Campus 3"
            }
        ],
        "tuesday": [
            {
                "time": "08:50 - 09:50",
                "subject": "ENG",
                "room": "C8"
            },
            {
                "time": "09:50 - 10:50",
                "subject": "T&NM",
                "room": "C8"
            },
            {
                "time": "10:50 - 11:50",
                "subject": "BEE",
                "room": "C8"
            },
            {
                "time": "14:00 - 16:00",
                "subject": "SY",
                "room": "Indoor Stadium, Campus 13"
            }
        ],
        "wednesday": [
            {
                "time": "09:00 - 10:00",
                "subject": "Electives",
                "room": "See Electives Page"
            },
            {
                "time": "10:20 - 11:20",
                "subject": "T&NM",
                "room": "C8"
            },
            {
                "time": "11:20 - 12:20",
                "subject": "BEE",
                "room": "C8"
            },
            {
                "time": "14:00 - 16:00",
                "subject": "Comm. Lab",
                "room": "C8"
            }
        ],
        "thursday": [
            {
                "time": "09:00 - 10:00",
                "subject": "Electives",
                "room": "See Electives Page"
            },
            {
                "time": "10:20 - 11:20",
                "subject": "CHEM",
                "room": "C8"
            },
            {
                "time": "11:20 - 12:20",
                "subject": "T&NM",
                "room": "C8"
            },
            {
                "time": "14:00 - 16:00",
                "subject": "Workshop",
                "room": "Campus 8"
            }
        ],
        "friday": [
            {
                "time": "09:00 - 10:00",
                "subject": "T&NM",
                "room": "C8"
            },
            {
                "time": "10:00 - 11:00",
                "subject": "CHEM",
                "room": "C8"
            },
            {
                "time": "11:00 - 12:00",
                "subject": "BEtc",
                "room": "C8"
            },
            {
                "time": "14:00 - 16:00",
                "subject": "Engg. Lab.",
                "room": "Campus 3"
            }
        ]
    }
}