{
    "meta": {
        "section": "B29",
        "type": "norm-class",
        "revision": "Revision 1.0",
        "effective-date": "Jan 6, 2025",
        "contributor": "PlanSync Admin :)",
        "isTimetableUpdating": false
    },
    "data": {
        "monday": [
            {
                "time": "10:00 - 11:00",
                "subject": "Electives",
                "room": "See Elective Page"
            },
            {
                "time": "11:20 - 12:20",
                "subject": "PHY",
                "room": "505"
            },
            {
                "time": "12:30 - 13:30",
                "subject": "T&NM",
                "room": "505"
            },
            {
                "time": "15:30 - 17:30",
                "subject": "ED & Graphics",
                "room": "Campus 3"
            }
        ],
        "tuesday": [
            {
                "time": "10:00 - 11:00",
                "subject": "Electives",
                "room": "See Elective Page"
            },
            {
                "time": "11:20 - 12:20",
                "subject": "PHY",
                "room": "505"
            },
            {
                "time": "12:30 - 13:30",
                "subject": "T&NM",
                "room": "505"
            },
            {
                "time": "15:00 - 18:00",
                "subject": "PL(T) & Programming Lab",
                "room": "A-DL-008"
            }
        ],
        "wednesday": [
            {
                "time": "10:00 - 11:00",
                "subject": "Electives",
                "room": "See Elective Page"
            },
            {
                "time": "11:20 - 12:20",
                "subject": "PHY",
                "room": "505"
            },
            {
                "time": "12:20 - 13:20",
                "subject": "ScLS",
                "room": "505"
            },
            {
                "time": "15:30 - 17:30",
                "subject": "Phy.Lab",
                "room": "Campus 3"
            }
        ],
        "thursday": [
            {
                "time": "10:00 - 11:00",
                "subject": "Electives",
                "room": "See Elective Page"
            },
            {
                "time": "11:20 - 12:20",
                "subject": "EVS",
                "room": "505"
            },
            {
                "time": "12:30 - 13:30",
                "subject": "T&NM",
                "room": "505"
            },
            {
                "time": "15:00 - 18:00",
                "subject": "PL(T) & Programming Lab",
                "room": "ADL-102"
            }
        ],
        "friday": [
            {
                "time": "10:00 - 11:00",
                "subject": "T&NM",
                "room": "505"
            },
            {
                "time": "11:20 - 12:20",
                "subject": "ScLS",
                "room": "505"
            },
            {
                "time": "12:20 - 13:20",
                "subject": "EVS",
                "room": "505"
            }
        ]
    }
}