{
    "meta": {
        "section": "CSE-17",
        "type": "norm-class",
        "revision": "Revision 1.0",
        "effective-date": "Aug 10, 2024",
        "contributor": "PlanSync Admin :)",
        "isTimetableUpdating": false
    },
    "data": {
        "monday": [
            {
                "time": "08:00 - 09:00",
                "subject": "EE",
                "room": "B-304"
            },
            {
                "time": "09:00 - 10:00",
                "subject": "SE",
                "room": "B-304"
            },
            {
                "time": "10:00 - 11:00",
                "subject": "CN",
                "room": "B-304"
            },
            {
                "time": "11:00 - 12:00",
                "subject": "DAA",
                "room": "A-DL-108"
            },
            {
                "time": "12:00 - 13:00",
                "subject": "CN(L)",
                "room": "A-DL-108"
            },
            {
                "time": "13:00 - 14:00",
                "subject": "CN(L)",
                "room": "A-DL-108"
            }
        ],
        "tuesday": [
            {
                "time": "10:00 - 11:00",
                "subject": "DAA",
                "room": "B-303"
            },
            {
                "time": "11:00 - 12:00",
                "subject": "EE",
                "room": "B-303"
            },
            {
                "time": "12:00 - 13:00",
                "subject": "SE",
                "room": "B-303"
            },
            {
                "time": "13:00 - 14:00",
                "subject": "CN",
                "room": "B-303"
            }
        ],
        "wednesday": [
            {
                "time": "08:00 - 09:00",
                "subject": "SE",
                "room": "B-301"
            },
            {
                "time": "09:00 - 10:00",
                "subject": "EE",
                "room": "B-301"
            },
            {
                "time": "10:00 - 11:00",
                "subject": "DAA",
                "room": "B-301"
            }
        ],
        "thursday": [
            {
                "time": "10:00 - 11:00",
                "subject": "SE",
                "room": "B-302"
            }
        ],
        "friday": [
            {
                "time": "08:00 - 09:00",
                "subject": "CN",
                "room": "B-301"
            },
            {
                "time": "09:00 - 10:00",
                "subject": "DAA(L)",
                "room": "WL-102"
            },
            {
                "time": "10:00 - 11:00",
                "subject": "DAA(L)",
                "room": "WL-102"
            }
        ]
    }
}