{
    "meta": {
        "section": "A21",
        "type": "norm-class",
        "revision": "Revision 3.0",
        "effective-date": "Sep 2, 2024",
        "contributor": "PlanSync Admin :)",
        "isTimetableUpdating": false
    },
    "data": {
        "monday": [
            {
                "time": "11:00 - 12:00",
                "subject": "DE&LA",
                "room": "C18"
            },
            {
                "time": "12:20 - 14:20",
                "subject": "ED & Graphics",
                "room": "Campus 3"
            },
            {
                "time": "15:30 - 16:30",
                "subject": "Electives",
                "room": "See Electives Page"
            },
            {
                "time": "16:40 - 17:40",
                "subject": "PHY",
                "room": "CL-2"
            }
        ],
        "tuesday": [
            {
                "time": "09:50 - 10:50",
                "subject": "DE&LA",
                "room": "C18"
            },
            {
                "time": "11:00 - 14:00",
                "subject": "PL(T) & Programming Lab",
                "room": "C-WL-402"
            },
            {
                "time": "15:30 - 16:30",
                "subject": "Electives",
                "room": "See Electives Page"
            },
            {
                "time": "16:40 - 17:40",
                "subject": "PHY",
                "room": "CL-2"
            }
        ],
        "wednesday": [
            {
                "time": "09:50 - 10:50",
                "subject": "PHY",
                "room": "C18"
            },
            {
                "time": "12:20 - 14:20",
                "subject": "Phy. Lab",
                "room": "Campus 3"
            },
            {
                "time": "15:30 - 16:30",
                "subject": "Electives",
                "room": "See Electives Page"
            },
            {
                "time": "16:40 - 17:40",
                "subject": "ScLS",
                "room": "CL-2"
            }
        ],
        "thursday": [
            {
                "time": "09:50 - 10:50",
                "subject": "EVS",
                "room": "C18"
            },
            {
                "time": "11:00 - 14:00",
                "subject": "PL(T) & Programming Lab",
                "room": "C-WL-302"
            },
            {
                "time": "15:30 - 16:30",
                "subject": "Electives",
                "room": "See Electives Page"
            },
            {
                "time": "16:40 - 17:40",
                "subject": "DE&LA",
                "room": "CL-2"
            }
        ],
        "friday": [
            {
                "time": "09:50 - 10:50",
                "subject": "EVS",
                "room": "C18"
            },
            {
                "time": "11:00 - 12:00",
                "subject": "DE&LA",
                "room": "C18"
            },
            {
                "time": "12:30 - 13:30",
                "subject": "Sc LS",
                "room": "C18"
            }
        ]
    }
}