{
    "meta": {
        "section": "A6",
        "type": "norm-class",
        "revision": "Revision 3.1",
        "effective-date": "Oct 24, 2024",
        "contributor": "PlanSync Admin :)",
        "isTimetableUpdating": false
    },
    "data": {
        "monday": [
            {
                "time": "08:00 - 10:00",
                "subject": "ED & Graphics",
                "room": "Campus 3"
            },
            {
                "time": "10:20 - 11:20",
                "subject": "EVS",
                "room": "CLA-6"
            },
            {
                "time": "11:20 - 12:20",
                "subject": "DE&LA",
                "room": "CLA-6"
            },
            {
                "time": "12:30 - 13:30",
                "subject": "Electives",
                "room": "See Electives Page"
            }
        ],
        "tuesday": [
            {
                "time": "08:00 - 11:00",
                "subject": "PL(T) & Programming Lab",
                "room": "C-WL-102"
            },
            {
                "time": "11:20 - 12:20",
                "subject": "EVS",
                "room": "CLA-6"
            },
            {
                "time": "12:20 - 13:20",
                "subject": "DE&LA",
                "room": "CLA-6"
            },
            {
                "time": "13:30 - 14:30",
                "subject": "Electives",
                "room": "See Electives Page"
            }
        ],
        "wednesday": [
            {
                "time": "08:00 - 09:00",
                "subject": "DE&LA",
                "room": "CLA-6"
            },
            {
                "time": "09:00 - 10:00",
                "subject": "PHY",
                "room": "CLA-6"
            },
            {
                "time": "10:20 - 11:20",
                "subject": "ScLS",
                "room": "CLA-6"
            },
            {
                "time": "12:30 - 13:30",
                "subject": "Electives",
                "room": "See Electives Page"
            }
        ],
        "thursday": [
            {
                "time": "08:00 - 10:00",
                "subject": "Phy. Lab",
                "room": "Campus 3"
            },
            {
                "time": "10:20 - 11:20",
                "subject": "DE&LA",
                "room": "CLA-6"
            },
            {
                "time": "11:20 - 12:20",
                "subject": "PHY",
                "room": "CLA-6"
            },
            {
                "time": "12:20 - 13:20",
                "subject": "ScLS",
                "room": "CLA-6"
            },
            {
                "time": "13:30 - 14:30",
                "subject": "Electives",
                "room": "See Electives Page"
            }
        ],
        "friday": [
            {
                "time": "08:00 - 11:00",
                "subject": "PL(T) & Programming Lab",
                "room": "C-WL-102"
            },
            {
                "time": "11:30 - 12:30",
                "subject": "PHY",
                "room": "CLA-6"
            }
        ]
    }
}