{
    "meta": {
        "section": "B8",
        "type": "norm-class",
        "revision": "Revision 3.0",
        "effective-date": "Sep 2, 2024",
        "contributor": "PlanSync Admin :)",
        "isTimetableUpdating": false
    },
    "data": {
        "monday": [
            {
                "time": "08:00 - 10:00",
                "subject": "Comm. Lab",
                "room": "403"
            },
            {
                "time": "10:20 - 11:20",
                "subject": "CHEM",
                "room": "403"
            },
            {
                "time": "11:20 - 12:20",
                "subject": "DE&LA",
                "room": "403"
            },
            {
                "time": "12:30 - 13:30",
                "subject": "Electives",
                "room": "See Electives Page"
            }
        ],
        "tuesday": [
            {
                "time": "08:00 - 10:00",
                "subject": "Workshop",
                "room": "Campus 8"
            },
            {
                "time": "10:20 - 11:20",
                "subject": "DE&LA",
                "room": "403"
            },
            {
                "time": "11:20 - 12:20",
                "subject": "CHEM",
                "room": "403"
            },
            {
                "time": "12:30 - 13:30",
                "subject": "Electives",
                "room": "See Electives Page"
            }
        ],
        "wednesday": [
            {
                "time": "08:00 - 10:00",
                "subject": "Engg. Lab.",
                "room": "Campus 3"
            },
            {
                "time": "10:20 - 11:20",
                "subject": "BEtc",
                "room": "403"
            },
            {
                "time": "11:20 - 12:20",
                "subject": "CHEM",
                "room": "403"
            },
            {
                "time": "12:20 - 13:30",
                "subject": "DE&LA",
                "room": "403"
            }
        ],
        "thursday": [
            {
                "time": "08:00 - 10:00",
                "subject": "Chem. Lab",
                "room": "Campus 3"
            },
            {
                "time": "10:20 - 11:20",
                "subject": "ENG",
                "room": "403"
            },
            {
                "time": "11:20 - 12:20",
                "subject": "BEE",
                "room": "403"
            },
            {
                "time": "12:20 - 13:30",
                "subject": "BEtc",
                "room": "403"
            }
        ],
        "friday": [
            {
                "time": "08:00 - 10:00",
                "subject": "SY",
                "room": "Indoor Stadium, Campus 13"
            },
            {
                "time": "10:20 - 12:20",
                "subject": "DE&LA",
                "room": "403"
            },
            {
                "time": "11:20 - 12:20",
                "subject": "BEE",
                "room": "403"
            },
            {
                "time": "12:20 - 13:30",
                "subject": "ENG",
                "room": "403"
            }
        ]
    }
}