{
    "meta": {
        "section": "a11",
        "type": "norm-class",
        "revision": "Revision 1.03",
        "effective-date": "Jan 15, 2024 (Satrudays' valid till Apr 13)",
        "contributor": "PlanSync Admin(N) :)",
        "isTimetableUpdating": false
    },
    "data": {
        "monday": [
            {
                "time": "08:00 - 09:00",
                "subject": "T & NM.",
                "room": "CLA5"
            },
            {
                "time": "09:00 - 10:00",
                "subject": "***",
                "room": "CLA5"
            },
            {
                "time": "10:00 - 12:00",
                "subject": "Engg. Lab",
                "room": "CLA5"
            },
            {
                "time": "12:00 - 13:00",
                "subject": "YHC",
                "room": "CLA5"
            },
            {
                "time": "13:20 - 14:20",
                "subject": "Electives",
                "room": "CLA5"
            }
        ],
        "tuesday": [
            {
                "time": "06:30 - 07:30",
                "subject": "YHC(P)",
                "room": "CLA6"
            },
            {
                "time": "09:00 - 10:00",
                "subject": "English",
                "room": "CLA6"
            },
            {
                "time": "10:00 - 11:00",
                "subject": "Chem",
                "room": "CLA6"
            },
            {
                "time": "11:00 - 12:00",
                "subject": "T & NM.",
                "room": "CLA6"
            },
            {
                "time": "12:00 - 13:00",
                "subject": "B. Etc",
                "room": "CLA6"
            },
            {
                "time": "13:00 - 14:00",
                "subject": "BEE",
                "room": "CLA6"
            }
        ],
        "wednesday": [
            {
                "time": "08:00 - 10:00",
                "subject": "Workshop Practice",
                "room": "C-12"
            },
            {
                "time": "10:00 - 11:00",
                "subject": "***",
                "room": "C-12"
            },
            {
                "time": "11:00 - 12:00",
                "subject": "T & NM.",
                "room": "C-12"
            },
            {
                "time": "12:00 - 13:00",
                "subject": "BEE",
                "room": "C-12"
            },
            {
                "time": "13:20 - 14:20",
                "subject": "Electives",
                "room": "C-12"
            }
        ],
        "thursday": [
            {
                "time": "08:00 - 10:00",
                "subject": "Chem Lab",
                "room": "CLA19"
            },
            {
                "time": "10:00 - 11:00",
                "subject": "***",
                "room": "CLA19"
            },
            {
                "time": "11:00 - 12:00",
                "subject": "Chem",
                "room": "CLA19"
            },
            {
                "time": "12:00 - 13:00",
                "subject": "English",
                "room": "CLA19"
            }
        ],
        "friday": [
            {
                "time": "08:00 - 09:00",
                "subject": "T & NM.",
                "room": "CLA3"
            },
            {
                "time": "09:00 - 10:00",
                "subject": "Chem",
                "room": "CLA3"
            },
            {
                "time": "10:00 - 11:00",
                "subject": "BEE",
                "room": "CLA3"
            },
            {
                "time": "11:00 - 13:00",
                "subject": "Comm. Lab",
                "room": "CLA3"
            },
            {
                "time": "13:20 - 14:20",
                "subject": "Electives",
                "room": "CLA3"
            }
        ],
        "saturday": [
            {
                "time": "08:00 - 09:00",
                "subject": "T & NM.",
                "room": "CLA5"
            },
            {
                "time": "09:00 - 10:00",
                "subject": "***",
                "room": "CLA5"
            },
            {
                "time": "10:00 - 12:00",
                "subject": "Engg. Lab",
                "room": "CLA5"
            },
            {
                "time": "12:00 - 13:00",
                "subject": "YHC",
                "room": "CLA5"
            },
            {
                "time": "13:20 - 14:20",
                "subject": "Electives",
                "room": "CLA5"
            }
        ]
    }
}