{
    "meta": {
        "section": "b30",
        "type": "norm-class",
        "revision": "Revision 1.03",
        "effective-date": "Jan 15, 2024 (Satrudays' valid till Apr 13)",
        "contributor": "PlanSync Admin :)",
        "isTimetableUpdating": false
    },
    "data": {
        "monday": [
            {
                "time": "10:00 - 11:00",
                "subject": "Electives",
                "room": "404"
            },
            {
                "time": "11:00 - 11:20",
                "subject": "***",
                "room": "404"
            },
            {
                "time": "11:20 - 12:20",
                "subject": "T & NM.",
                "room": "404"
            },
            {
                "time": "12:20 - 13:20",
                "subject": "EVS",
                "room": "404"
            },
            {
                "time": "13:20 - 15:00",
                "subject": "***",
                "room": "404"
            },
            {
                "time": "15:00 - 17:00",
                "subject": "ED & Graphics",
                "room": "404"
            }
        ],
        "tuesday": [
            {
                "time": "10:00 - 11:00",
                "subject": "Electives",
                "room": "101"
            },
            {
                "time": "11:00 - 11:20",
                "subject": "***",
                "room": "101"
            },
            {
                "time": "11:20 - 12:20",
                "subject": "Physics",
                "room": "101"
            },
            {
                "time": "12:20 - 15:00",
                "subject": "***",
                "room": "101"
            },
            {
                "time": "15:00 - 18:00",
                "subject": "PL(T) & Programming Lab",
                "room": "101"
            }
        ],
        "wednesday": [
            {
                "time": "10:00 - 11:00",
                "subject": "Electives",
                "room": "403"
            },
            {
                "time": "11:00 - 11:20",
                "subject": "***",
                "room": "403"
            },
            {
                "time": "11:20 - 12:20",
                "subject": "T & NM.",
                "room": "403"
            },
            {
                "time": "12:20 - 13:20",
                "subject": "Sc LS.",
                "room": "403"
            },
            {
                "time": "13:20 - 15:00",
                "subject": "***",
                "room": "403"
            },
            {
                "time": "15:00 - 16:00",
                "subject": "Physics",
                "room": "403"
            },
            {
                "time": "16:00 - 17:00",
                "subject": "EVS",
                "room": "403"
            }
        ],
        "thursday": [
            {
                "time": "10:00 - 11:00",
                "subject": "Electives",
                "room": "407"
            },
            {
                "time": "11:00 - 12:00",
                "subject": "***",
                "room": "407"
            },
            {
                "time": "12:00 - 14:00",
                "subject": "Physics Lab",
                "room": "407"
            },
            {
                "time": "14:00 - 15:00",
                "subject": "***",
                "room": "407"
            },
            {
                "time": "15:00 - 16:00",
                "subject": "Physics",
                "room": "407"
            },
            {
                "time": "16:00 - 17:00",
                "subject": "T & NM.",
                "room": "407"
            }
        ],
        "friday": [
            {
                "time": "10:00 - 11:00",
                "subject": "Electives",
                "room": "503"
            },
            {
                "time": "11:00 - 11:20",
                "subject": "***",
                "room": "503"
            },
            {
                "time": "11:20 - 12:20",
                "subject": "T & NM.",
                "room": "503"
            },
            {
                "time": "12:20 - 13:20",
                "subject": "Sc LS.",
                "room": "503"
            },
            {
                "time": "13:20 - 15:00",
                "subject": "***",
                "room": "503"
            },
            {
                "time": "15:00 - 18:00",
                "subject": "PL(T) & Programming Lab",
                "room": "503"
            }
        ],
        "saturday": [
            {
                "time": "10:00 - 11:00",
                "subject": "Electives",
                "room": "404"
            },
            {
                "time": "11:00 - 11:20",
                "subject": "***",
                "room": "404"
            },
            {
                "time": "11:20 - 12:20",
                "subject": "T & NM.",
                "room": "404"
            },
            {
                "time": "12:20 - 13:20",
                "subject": "EVS",
                "room": "404"
            },
            {
                "time": "13:20 - 15:00",
                "subject": "***",
                "room": "404"
            },
            {
                "time": "15:00 - 17:00",
                "subject": "ED & Graphics",
                "room": "404"
            }
        ]
    }
}