{
    "meta": {
        "type": "electives",
        "revision": "Revision 1.01",
        "effective-date": "Jan 15, 2024\n(Satrudays' valid till Apr 13)",
        "name": "Electives Configuration for Scheme B",
        "isTimetableUpdating": false
    },
    "data": {
        "monday": [
            {
                "subject": "NANO-01",
                "room": "Room 02"
            },
            {
                "subject": "NANO-02",
                "room": "Room 201"
            },
            {
                "subject": "MD-01",
                "room": "Room 503"
            },
            {
                "subject": "SM-02",
                "room": "Room 202"
            },
            {
                "subject": "OT-1",
                "room": "Room 504"
            },
            {
                "subject": "OT-2",
                "room": "Room 505"
            },
            {
                "subject": "SPH-01",
                "room": "Room 203"
            },
            {
                "subject": "SPH-02",
                "room": "Room 101"
            },
            {
                "subject": "NANO-05",
                "room": "Room 402"
            },
            {
                "subject": "SM-04",
                "room": "Room 403"
            },
            {
                "subject": "SM-05",
                "room": "Room 301"
            },
            {
                "subject": "OT-3",
                "room": "Room 404"
            },
            {
                "subject": "MD-02",
                "room": "Room 405"
            },
            {
                "subject": "SPH-04",
                "room": "Room 305"
            },
            {
                "subject": "SPH-05",
                "room": "Room 406"
            },
            {
                "subject": "BME-12",
                "room": "Room 402"
            },
            {
                "subject": "BME-13",
                "room": "Room 406"
            },
            {
                "subject": "BME-14",
                "room": "Room 502"
            },
            {
                "subject": "BCE-04",
                "room": "Room 503"
            },
            {
                "subject": "BI-07",
                "room": "Room 504"
            },
            {
                "subject": "BioM-05",
                "room": "Room 505"
            }
        ],
        "tuesday": [
            {
                "subject": "BME-01",
                "room": "Room 101"
            },
            {
                "subject": "BME-02",
                "room": "Room 201"
            },
            {
                "subject": "BME-03",
                "room": "Room 202"
            },
            {
                "subject": "BME-04",
                "room": "Room 203"
            },
            {
                "subject": "BME-05",
                "room": "Room 401"
            },
            {
                "subject": "BCE-01",
                "room": "Room 402"
            },
            {
                "subject": "BCE-02",
                "room": "Room 301"
            },
            {
                "subject": "BI-01",
                "room": "Room 406"
            },
            {
                "subject": "BI-02",
                "room": "Room 407"
            },
            {
                "subject": "BI-03",
                "room": "Room 501"
            },
            {
                "subject": "BioM-01",
                "room": "Room 306"
            },
            {
                "subject": "BioM-02",
                "room": "Room 305"
            },
            {
                "subject": "BCE-03",
                "room": "Room 403"
            },
            {
                "subject": "BME-06",
                "room": "Room 404"
            },
            {
                "subject": "BME-07",
                "room": "Room 405"
            },
            {
                "subject": "BME-08",
                "room": "Room 306"
            },
            {
                "subject": "BME-09",
                "room": "Room 303"
            },
            {
                "subject": "BME-10",
                "room": "Room 401"
            },
            {
                "subject": "BME-11",
                "room": "Room 402"
            },
            {
                "subject": "BI-04",
                "room": "Room 302"
            },
            {
                "subject": "BI-05",
                "room": "Room 305"
            },
            {
                "subject": "BI-06",
                "room": "Room 406"
            },
            {
                "subject": "BioM-03",
                "room": "Room 407"
            },
            {
                "subject": "BioM-04",
                "room": "Room 501"
            },
            {
                "subject": "NANO-07",
                "room": "Room 403"
            },
            {
                "subject": "NANO-08",
                "room": "Room 404"
            },
            {
                "subject": "SM-07",
                "room": "Room 405"
            },
            {
                "subject": "SM-08",
                "room": "Room 502"
            },
            {
                "subject": "OT-05",
                "room": "Room 503"
            },
            {
                "subject": "OT-06",
                "room": "Room 504"
            },
            {
                "subject": "MD-03",
                "room": "Room 505"
            },
            {
                "subject": "SPH-07",
                "room": "Room 506"
            },
            {
                "subject": "SPH-08",
                "room": "Room 101"
            }
        ],
        "wednesday": [
            {
                "subject": "NANO-01",
                "room": "Room 101"
            },
            {
                "subject": "NANO-03",
                "room": "Room 102"
            },
            {
                "subject": "SM-01",
                "room": "Room 201"
            },
            {
                "subject": "SM-02",
                "room": "Room 202"
            },
            {
                "subject": "SM-03",
                "room": "Room 203"
            },
            {
                "subject": "OT-1",
                "room": "Room 406"
            },
            {
                "subject": "SPH-01",
                "room": "Room 502"
            },
            {
                "subject": "SPH-03",
                "room": "Room 503"
            },
            {
                "subject": "NANO-04",
                "room": "Room 401"
            },
            {
                "subject": "NANO-06",
                "room": "Room 402"
            },
            {
                "subject": "SM-04",
                "room": "Room 403"
            },
            {
                "subject": "SM-06",
                "room": "Room 404"
            },
            {
                "subject": "OT-04",
                "room": "Room 405"
            },
            {
                "subject": "MD-02",
                "room": "Room 406"
            },
            {
                "subject": "SPH-05",
                "room": "Room 305"
            },
            {
                "subject": "SPH-06",
                "room": "Room 306"
            },
            {
                "subject": "BME-12",
                "room": "Room 404"
            },
            {
                "subject": "BME-13",
                "room": "Room 405"
            },
            {
                "subject": "BME-15",
                "room": "Room 202"
            },
            {
                "subject": "BI-08",
                "room": "Room 503"
            },
            {
                "subject": "Biom-05",
                "room": "Room 504"
            },
            {
                "subject": "BioM-06",
                "room": "Room 505"
            }
        ],
        "thursday": [
            {
                "subject": "BME-01",
                "room": "Room 201"
            },
            {
                "subject": "BME-02",
                "room": "Room 202"
            },
            {
                "subject": "BME-03",
                "room": "Room 203"
            },
            {
                "subject": "BME-04",
                "room": "Room 101"
            },
            {
                "subject": "BME-05",
                "room": "Room 102"
            },
            {
                "subject": "BCE-01",
                "room": "Room 501"
            },
            {
                "subject": "BCE-02",
                "room": "Room 506"
            },
            {
                "subject": "BI-01",
                "room": "Room 305"
            },
            {
                "subject": "BI-02",
                "room": "Room 503"
            },
            {
                "subject": "BI-03",
                "room": "Room 504"
            },
            {
                "subject": "BioM-01",
                "room": "Room 502"
            },
            {
                "subject": "BioM-02",
                "room": "Room 304"
            },
            {
                "subject": "BME-06",
                "room": "Room 306"
            },
            {
                "subject": "BME-07",
                "room": "Room 302"
            },
            {
                "subject": "BME-08",
                "room": "Room 401"
            },
            {
                "subject": "BME-09",
                "room": "Room 402"
            },
            {
                "subject": "BME-10",
                "room": "Room 301"
            },
            {
                "subject": "BME-11",
                "room": "Room 404"
            },
            {
                "subject": "BI-04",
                "room": "Room 405"
            },
            {
                "subject": "BI-05",
                "room": "Room 303"
            },
            {
                "subject": "BI-06",
                "room": "Room 406"
            },
            {
                "subject": "BioM-03",
                "room": "Room 407"
            },
            {
                "subject": "BioM-04",
                "room": "Room 501"
            },
            {
                "subject": "NANO-07",
                "room": "Room 306"
            },
            {
                "subject": "NANO-08",
                "room": "Room 401"
            },
            {
                "subject": "SM-07",
                "room": "Room 402"
            },
            {
                "subject": "SM-08",
                "room": "Room 404"
            },
            {
                "subject": "OT-05",
                "room": "Room 502"
            },
            {
                "subject": "OT-06",
                "room": "Room 504"
            },
            {
                "subject": "MD-03",
                "room": "Room 505"
            },
            {
                "subject": "SPH-07",
                "room": "Room 506"
            },
            {
                "subject": "SPH-08",
                "room": "Room 101"
            }
        ],
        "friday": [
            {
                "subject": "NANO-02",
                "room": "Room 501"
            },
            {
                "subject": "NANO-03",
                "room": "Room 402"
            },
            {
                "subject": "SM-01",
                "room": "Room 401"
            },
            {
                "subject": "SM-03",
                "room": "Room 101"
            },
            {
                "subject": "OT-02",
                "room": "Room 102"
            },
            {
                "subject": "MD-01",
                "room": "Room 203"
            },
            {
                "subject": "SPH-02",
                "room": "Room 304"
            },
            {
                "subject": "SPH-03",
                "room": "Room 305"
            },
            {
                "subject": "NANO-05",
                "room": "Room 301"
            },
            {
                "subject": "NANO-06",
                "room": "Room 402"
            },
            {
                "subject": "SM-05",
                "room": "Room 302"
            },
            {
                "subject": "SM-06",
                "room": "Room 403"
            },
            {
                "subject": "OT-03",
                "room": "Room 404"
            },
            {
                "subject": "OT-04",
                "room": "Room 405"
            },
            {
                "subject": "SPH-04",
                "room": "Room 304"
            },
            {
                "subject": "SPH-06",
                "room": "Room 406"
            },
            {
                "subject": "NANO-04",
                "room": "Room 305"
            },
            {
                "subject": "BMME-14",
                "room": "Room 404"
            },
            {
                "subject": "BME-15",
                "room": "Room 405"
            },
            {
                "subject": "BCE-04",
                "room": "Room 406"
            },
            {
                "subject": "BI-07",
                "room": "Room 502"
            },
            {
                "subject": "BI-08",
                "room": "Room 503"
            },
            {
                "subject": "BioM-06",
                "room": "Room 504"
            }
        ],
        "saturday": [
            {
                "subject": "NANO-01",
                "room": "5Room 02"
            },
            {
                "subject": "NANO-02",
                "room": "Room 201"
            },
            {
                "subject": "MD-01",
                "room": "Room 503"
            },
            {
                "subject": "SM-02",
                "room": "Room 202"
            },
            {
                "subject": "OT-1",
                "room": "Room 504"
            },
            {
                "subject": "OT-2",
                "room": "Room 505"
            },
            {
                "subject": "SPH-01",
                "room": "Room 203"
            },
            {
                "subject": "SPH-02",
                "room": "Room 101"
            },
            {
                "subject": "NANO-05",
                "room": "Room 402"
            },
            {
                "subject": "SM-04",
                "room": "Room 403"
            },
            {
                "subject": "SM-05",
                "room": "Room 301"
            },
            {
                "subject": "OT-3",
                "room": "Room 404"
            },
            {
                "subject": "MD-02",
                "room": "Room 405"
            },
            {
                "subject": "SPH-04",
                "room": "Room 305"
            },
            {
                "subject": "SPH-05",
                "room": "Room 406"
            },
            {
                "subject": "BME-12",
                "room": "Room 402"
            },
            {
                "subject": "BME-13",
                "room": "Room 406"
            },
            {
                "subject": "BME-14",
                "room": "Room 502"
            },
            {
                "subject": "BCE-04",
                "room": "Room 503"
            },
            {
                "subject": "BI-07",
                "room": "Room 504"
            },
            {
                "subject": "BioM-05",
                "room": "Room 505"
            }
        ]
    }
}