{
    "meta": {
        "section": "CSCE-2",
        "type": "norm-class",
        "revision": "Revision 1.2",
        "effective-date": "Aug 7, 2024",
        "contributor": "PlanSync Admin :)",
        "isTimetableUpdating": false
    },
    "data": {
        "monday": [
            {
                "time": "09:00 - 10:00",
                "subject": "DSD",
                "room": "A-LH-203"
            },
            {
                "time": "10:00 - 11:00",
                "subject": "DS",
                "room": "A-LH-203"
            },
            {
                "time": "14:00 - 15:00",
                "subject": "IND4",
                "room": "A-LH-203"
            },
            {
                "time": "15:00 - 16:00",
                "subject": "PS",
                "room": "A-LH-203"
            },
            {
                "time": "16:00 - 17:00",
                "subject": "CE",
                "room": "A-LH-203"
            },
            {
                "time": "17:00 - 18:00",
                "subject": "STW",
                "room": "A-LH-203"
            }
        ],
        "wednesday": [
            {
                "time": "11:00 - 12:00",
                "subject": "PS",
                "room": "A-LH-202"
            },
            {
                "time": "12:00 - 13:00",
                "subject": "STW",
                "room": "A-LH-202"
            },
            {
                "time": "13:00 - 14:00",
                "subject": "CE",
                "room": "A-LH-202"
            },
            {
                "time": "15:00 - 16:00",
                "subject": "DS",
                "room": "B-301"
            },
            {
                "time": "16:00 - 17:00",
                "subject": "IND4",
                "room": "B-301"
            }
        ],
        "thursday": [
            {
                "time": "11:00 - 12:00",
                "subject": "DS",
                "room": "A-LH-205"
            },
            {
                "time": "12:00 - 13:00",
                "subject": "PS",
                "room": "A-LH-205"
            },
            {
                "time": "13:00 - 14:00",
                "subject": "CE",
                "room": "A-LH-205"
            },
            {
                "time": "15:00 - 16:00",
                "subject": "DSD",
                "room": "Cl2_DEC(new)"
            },
            {
                "time": "16:00 - 17:00",
                "subject": "DSD(L)",
                "room": "Cl2-DEC(new)"
            },
            {
                "time": "17:00 - 18:00",
                "subject": "DSD(L)",
                "room": "Cl2-DEC(new)"
            }
        ],
        "friday": [
            {
                "time": "11:00 - 12:00",
                "subject": "DSD",
                "room": "A-LH-202"
            },
            {
                "time": "12:00 - 13:00",
                "subject": "PS",
                "room": "A-LH-202"
            },
            {
                "time": "15:00 - 16:00",
                "subject": "CE(L)",
                "room": "ETC_CE_LAB"
            },
            {
                "time": "16:00 - 17:00",
                "subject": "CE(L)",
                "room": "ETC_CE_LAB"
            }
        ],
        "saturday": [
            {
                "time": "15:00 - 16:00",
                "subject": "DS",
                "room": "B-203"
            },
            {
                "time": "16:00 - 17:00",
                "subject": "DS(L)",
                "room": "A-DL-008"
            },
            {
                "time": "17:00 - 18:00",
                "subject": "DS(L)",
                "room": "A-DL-008"
            }
        ]
    }
}