{
    "meta": {
        "section": "CSE-39",
        "type": "norm-class",
        "revision": "Revision 1.1",
        "effective-date": "Jul 24, 2024",
        "contributor": "PlanSync Admin :)",
        "isTimetableUpdating": false
    },
    "data": {
        "monday": [
            {
                "time": "11:00 - 12:00",
                "subject": "IND4",
                "room": "C-LH-408"
            },
            {
                "time": "12:00 - 13:00",
                "subject": "DSD",
                "room": "C-LH-408"
            },
            {
                "time": "13:00 - 14:00",
                "subject": "AFL",
                "room": "C-LH-408"
            },
            {
                "time": "15:00 - 16:00",
                "subject": "STW",
                "room": "C-LH-206"
            },
            {
                "time": "16:00 - 17:00",
                "subject": "PS",
                "room": "C-LH-206"
            }
        ],
        "tuesday": [
            {
                "time": "11:00 - 12:00",
                "subject": "PS",
                "room": "C-LH-406"
            },
            {
                "time": "12:00 - 13:00",
                "subject": "STW",
                "room": "C-LH-406"
            },
            {
                "time": "15:00 - 16:00",
                "subject": "AFL",
                "room": "C-LH-305"
            },
            {
                "time": "16:00 - 17:00",
                "subject": "DS",
                "room": "C-LH-305"
            },
            {
                "time": "17:00 - 18:00",
                "subject": "DSD",
                "room": "C-LH-305"
            }
        ],
        "wednesday": [
            {
                "time": "09:00 - 10:00",
                "subject": "PS",
                "room": "C-LH-308"
            },
            {
                "time": "10:00 - 11:00",
                "subject": "DS",
                "room": "C-LH-308"
            },
            {
                "time": "14:00 - 15:00",
                "subject": "IND4",
                "room": "C-LH-305"
            }
        ],
        "friday": [
            {
                "time": "11:00 - 12:00",
                "subject": "AFL",
                "room": "C-LH-002"
            },
            {
                "time": "12:00 - 13:00",
                "subject": "DS",
                "room": "C-LH-002"
            },
            {
                "time": "13:00 - 14:00",
                "subject": "PS",
                "room": "C-LH-002"
            },
            {
                "time": "15:00 - 16:00",
                "subject": "DSD",
                "room": "C12_DEC(new)"
            },
            {
                "time": "16:00 - 17:00",
                "subject": "DSD(L)",
                "room": "C12_DEC(new)"
            },
            {
                "time": "17:00 - 18:00",
                "subject": "DSD(L)",
                "room": "C12_DEC(new)"
            }
        ],
        "saturday": [
            {
                "time": "11:00 - 12:00",
                "subject": "DS",
                "room": "C-LH-306"
            },
            {
                "time": "15:00 - 16:00",
                "subject": "AFL",
                "room": "C-LH-203"
            },
            {
                "time": "16:00 - 17:00",
                "subject": "DS(L)",
                "room": "C-WL-101"
            },
            {
                "time": "17:00 - 18:00",
                "subject": "DS(L)",
                "room": "C-WL-101"
            }
        ]
    }
}